%YAML 1.1
%TAG !u! tag:unity3d.com,2011:
--- !u!114 &11400000
MonoBehaviour:
  m_ObjectHideFlags: 0
  m_CorrespondingSourceObject: {fileID: 0}
  m_PrefabInstance: {fileID: 0}
  m_PrefabAsset: {fileID: 0}
  m_GameObject: {fileID: 0}
  m_Enabled: 1
  m_EditorHideFlags: 0
  m_Script: {fileID: 11500000, guid: 97b4f566c59ee4643aad123ced652216, type: 3}
  m_Name: Dodge
  m_EditorClassIdentifier: 
  _inputList: 
  _actionList: []
  IsCancellable: 0
  CanCancel: 1
  CanMove: 1
  IsAerial: 0
  ActionType: 1
  WeaponType: 0
  transitionOutTime: 0.1
