%YAML 1.1
%TAG !u! tag:unity3d.com,2011:
--- !u!114 &11400000
MonoBehaviour:
  m_ObjectHideFlags: 0
  m_CorrespondingSourceObject: {fileID: 0}
  m_PrefabInstance: {fileID: 0}
  m_PrefabAsset: {fileID: 0}
  m_GameObject: {fileID: 0}
  m_Enabled: 1
  m_EditorHideFlags: 0
  m_Script: {fileID: 11500000, guid: e47317b4d9801dc4aa20636892bc1af3, type: 3}
  m_Name: Sword
  m_EditorClassIdentifier: 
  WeaponType: 1
  _prefab: {fileID: 919132149155446097, guid: 5103dd59db0608340a5bec58bc0d1f42, type: 3}
  AttackValue: 10
  ActionList:
    _inputList: 0100000002000000
    _actionList:
    - {fileID: 11400000, guid: 60d8b7ae16a65dd40a4b4b3d5f124580, type: 2}
    - {fileID: 11400000, guid: ea14095e76f9a8946a68a2643d6c6c0f, type: 2}
